eightXoneMux/dump.vcd
$date
	Sat May 06 21:22:20 2023
$end
$version
	Icarus Verilog
$end
$timescale
	1s
$end
$scope module test $end
$scope module a1 $end
$var wire 1 ! i0 $end
$var wire 1 " i1 $end
$var wire 1 # i2 $end
$var wire 1 $ i3 $end
$var wire 1 % i4 $end
$var wire 1 & i5 $end
$var wire 1 ' i6 $end
$var wire 1 ( i7 $end
$var wire 1 ) s0 $end
$var wire 1 * s1 $end
$var wire 1 + s2 $end
$var wire 1 , w1 $end
$var wire 1 - w0 $end
$var wire 1 . out $end
$scope module a0 $end
$var wire 1 ! i0 $end
$var wire 1 " i1 $end
$var wire 1 # i2 $end
$var wire 1 $ i3 $end
$var wire 1 ) s0 $end
$var wire 1 * s1 $end
$var wire 1 / w1 $end
$var wire 1 0 w0 $end
$var wire 1 - out $end
$scope module a0 $end
$var wire 1 ! i0 $end
$var wire 1 " i1 $end
$var wire 1 0 out $end
$var wire 1 ) s0 $end
$var wire 1 1 w0 $end
$var wire 1 2 w1 $end
$var wire 1 3 w2 $end
$upscope $end
$scope module a1 $end
$var wire 1 # i0 $end
$var wire 1 $ i1 $end
$var wire 1 / out $end
$var wire 1 ) s0 $end
$var wire 1 4 w0 $end
$var wire 1 5 w1 $end
$var wire 1 6 w2 $end
$upscope $end
$scope module a2 $end
$var wire 1 0 i0 $end
$var wire 1 / i1 $end
$var wire 1 - out $end
$var wire 1 * s0 $end
$var wire 1 7 w0 $end
$var wire 1 8 w1 $end
$var wire 1 9 w2 $end
$upscope $end
$upscope $end
$scope module a1 $end
$var wire 1 % i0 $end
$var wire 1 & i1 $end
$var wire 1 ' i2 $end
$var wire 1 ( i3 $end
$var wire 1 ) s0 $end
$var wire 1 * s1 $end
$var wire 1 : w1 $end
$var wire 1 ; w0 $end
$var wire 1 , out $end
$scope module a0 $end
$var wire 1 % i0 $end
$var wire 1 & i1 $end
$var wire 1 ; out $end
$var wire 1 ) s0 $end
$var wire 1 < w0 $end
$var wire 1 = w1 $end
$var wire 1 > w2 $end
$upscope $end
$scope module a1 $end
$var wire 1 ' i0 $end
$var wire 1 ( i1 $end
$var wire 1 : out $end
$var wire 1 ) s0 $end
$var wire 1 ? w0 $end
$var wire 1 @ w1 $end
$var wire 1 A w2 $end
$upscope $end
$scope module a2 $end
$var wire 1 ; i0 $end
$var wire 1 : i1 $end
$var wire 1 , out $end
$var wire 1 * s0 $end
$var wire 1 B w0 $end
$var wire 1 C w1 $end
$var wire 1 D w2 $end
$upscope $end
$upscope $end
$scope module a2 $end
$var wire 1 - i0 $end
$var wire 1 , i1 $end
$var wire 1 . out $end
$var wire 1 + s0 $end
$var wire 1 E w0 $end
$var wire 1 F w1 $end
$var wire 1 G w2 $end
$upscope $end
$upscope $end
$upscope $end
$enddefinitions $end
$comment Show the parameter values. $end
$dumpall
$end
#0
$dumpvars
0G
0F
1E
0D
0C
1B
0A
0@
1?
0>
0=
1<
0;
0:
09
08
17
06
05
14
03
02
11
00
0/
0.
0-
0,
0+
0*
0)
0(
0'
0&
0%
0$
0#
0"
0!
$end
#1
01
04
0<
0?
1)
#2
11
14
1<
1?
07
0B
0)
1*
#3
01
04
0<
0?
1)
#4
11
14
1<
1?
17
1B
0E
0)
0*
1+
#5
01
04
0<
0?
1)
#6
11
14
1<
1?
07
0B
0)
1*
#7
01
04
0<
0?
1)
#8
1.
1F
1-
18
10
12
11
14
1<
1?
17
1B
1E
0)
0*
0+
1!
#9
0.
0F
0-
08
00
02
01
04
0<
0?
1)
#10
10
12
11
14
1<
1?
07
0B
0)
1*
#11
00
02
01
04
0<
0?
1)
#12
1-
18
10
12
11
14
1<
1?
17
1B
0E
0)
0*
1+
#13
0-
08
00
02
01
04
0<
0?
1)
#14
10
12
11
14
1<
1?
07
0B
0)
1*
#15
00
02
01
04
0<
0?
1)
#16
11
14
1<
1?
17
1B
1E
0)
0*
0+
0!
1"
#17
1.
1F
1-
18
10
01
13
04
0<
0?
1)
#18
0.
0F
0-
00
08
11
03
14
1<
1?
07
0B
0)
1*
#19
10
01
13
04
0<
0?
1)
#20
0-
00
08
11
03
14
1<
1?
17
1B
0E
0)
0*
1+
#21
1-
18
10
01
13
04
0<
0?
1)
#22
0-
00
08
11
03
14
1<
1?
07
0B
0)
1*
#23
10
01
13
04
0<
0?
1)
#24
1.
1F
1-
12
10
18
11
03
14
1<
1?
17
1B
1E
0)
0*
0+
1!
#25
02
01
13
04
0<
0?
1)
#26
0.
0F
0-
12
10
08
11
03
14
1<
1?
07
0B
0)
1*
#27
02
01
13
04
0<
0?
1)
#28
1-
12
10
18
11
03
14
1<
1?
17
1B
0E
0)
0*
1+
#29
02
01
13
04
0<
0?
1)
#30
0-
12
10
08
11
03
14
1<
1?
07
0B
0)
1*
#31
02
01
13
04
0<
0?
1)
#32
1/
15
00
11
14
1<
1?
17
1B
1E
03
0)
0*
0+
0!
0"
1#
#33
0/
05
01
04
0<
0?
1)
#34
1.
1F
1-
19
1/
15
11
14
1<
1?
07
0B
0)
1*
#35
0.
0F
0-
09
0/
05
01
04
0<
0?
1)
#36
1/
15
11
14
1<
1?
17
1B
0E
0)
0*
1+
#37
0/
05
01
04
0<
0?
1)
#38
1-
19
1/
15
11
14
1<
1?
07
0B
0)
1*
#39
0-
09
0/
05
01
04
0<
0?
1)
#40
1.
1F
1-
18
10
1/
12
15
11
14
1<
1?
17
1B
1E
0)
0*
0+
1!
#41
0.
0F
0-
08
00
0/
02
05
01
04
0<
0?
1)
#42
1.
1F
1-
19
10
1/
12
15
11
14
1<
1?
07
0B
0)
1*
#43
0.
0F
0-
09
00
0/
02
05
01
04
0<
0?
1)
#44
1-
18
10
1/
12
15
11
14
1<
1?
17
1B
0E
0)
0*
1+
#45
0-
08
00
0/
02
05
01
04
0<
0?
1)
#46
1-
19
10
1/
12
15
11
14
1<
1?
07
0B
0)
1*
#47
0-
09
00
0/
02
05
01
04
0<
0?
1)
#48
1/
15
11
14
1<
1?
17
1B
1E
0)
0*
0+
0!
1"
#49
1.
1F
1-
18
0/
10
05
01
13
04
0<
0?
1)
#50
1.
19
1F
1/
1-
00
15
08
11
03
14
1<
1?
07
0B
0)
1*
#51
0.
0F
0-
09
0/
10
05
01
13
04
0<
0?
1)
#52
1/
0-
00
15
08
11
03
14
1<
1?
17
1B
0E
0)
0*
1+
#53
1-
18
0/
10
05
01
13
04
0<
0?
1)
#54
19
1/
1-
00
15
08
11
03
14
1<
1?
07
0B
0)
1*
#55
0-
09
0/
10
05
01
13
04
0<
0?
1)
#56
1.
1F
1/
1-
12
10
15
18
11
03
14
1<
1?
17
1B
1E
0)
0*
0+
1!
#57
0/
02
05
01
13
04
0<
0?
1)
#58
1.
19
1F
1/
1-
12
10
15
08
11
03
14
1<
1?
07
0B
0)
1*
#59
0.
0F
0-
09
0/
02
05
01
13
04
0<
0?
1)
#60
1/
1-
12
10
15
18
11
03
14
1<
1?
17
1B
0E
0)
0*
1+
#61
0/
02
05
01
13
04
0<
0?
1)
#62
19
1/
1-
12
10
15
08
11
03
14
1<
1?
07
0B
0)
1*
#63
0-
09
0/
02
05
01
13
04
0<
0?
1)
#64
00
11
14
1<
1?
17
1B
1E
03
0)
0*
0+
0!
0"
0#
1$
#65
1/
01
04
16
0<
0?
1)
#66
0.
0F
0/
0-
11
14
06
1<
1?
07
09
0B
0)
1*
#67
1.
1F
1-
19
1/
01
04
16
0<
0?
1)
#68
0.
0/
0-
0F
11
14
06
1<
1?
17
09
1B
0E
0)
0*
1+
#69
1/
01
04
16
0<
0?
1)
#70
0/
0-
11
14
06
1<
1?
07
09
0B
0)
1*
#71
1-
19
1/
01
04
16
0<
0?
1)
#72
18
10
1.
12
0/
1-
1F
11
14
06
1<
1?
17
09
1B
1E
0)
0*
0+
1!
#73
0.
0F
0-
08
00
02
1/
01
04
16
0<
0?
1)
#74
0.
10
0F
12
0/
0-
11
14
06
1<
1?
07
09
0B
0)
1*
#75
1.
1F
1-
00
19
02
1/
01
04
16
0<
0?
1)
#76
18
10
0.
12
0/
1-
0F
11
14
06
1<
1?
17
09
1B
0E
0)
0*
1+
#77
0-
08
00
02
1/
01
04
16
0<
0?
1)
#78
10
12
0/
0-
11
14
06
1<
1?
07
09
0B
0)
1*
#79
1-
00
19
02
1/
01
04
16
0<
0?
1)
#80
0.
0/
0-
0F
11
14
06
1<
1?
17
09
1B
1E
0)
0*
0+
0!
1"
#81
1.
1F
1-
18
10
1/
01
13
04
16
0<
0?
1)
#82
0.
0F
0-
00
0/
08
11
03
14
06
1<
1?
07
09
0B
0)
1*
#83
1.
1F
1-
19
10
1/
01
13
04
16
0<
0?
1)
#84
0.
00
0/
08
0-
0F
11
03
14
06
1<
1?
17
09
1B
0E
0)
0*
1+
#85
1-
18
10
1/
01
13
04
16
0<
0?
1)
#86
0-
00
0/
08
11
03
14
06
1<
1?
07
09
0B
0)
1*
#87
1-
19
10
1/
01
13
04
16
0<
0?
1)
#88
1.
12
10
0/
18
1-
1F
11
03
14
06
1<
1?
17
09
1B
1E
0)
0*
0+
1!
#89
02
1/
01
13
04
16
0<
0?
1)
#90
0.
0F
0-
12
10
0/
08
11
03
14
06
1<
1?
07
09
0B
0)
1*
#91
1.
1F
1-
19
02
1/
01
13
04
16
0<
0?
1)
#92
0.
12
10
0/
18
1-
0F
11
03
14
06
1<
1?
17
09
1B
0E
0)
0*
1+
#93
02
1/
01
13
04
16
0<
0?
1)
#94
0-
12
10
0/
08
11
03
14
06
1<
1?
07
09
0B
0)
1*
#95
1-
19
02
1/
01
13
04
16
0<
0?
1)
#96
0.
15
1/
0-
0F
00
11
14
06
1<
1?
17
09
1B
1E
03
0)
0*
0+
0!
0"
1#
#97
05
01
04
16
0<
0?
1)
#98
1.
1F
15
1/
1-
11
14
06
1<
1?
07
19
0B
0)
1*
#99
05
01
04
16
0<
0?
1)
#100
0.
15
1/
0-
0F
11
14
06
1<
1?
17
09
1B
0E
0)
0*
1+
#101
05
01
04
16
0<
0?
1)
#102
15
1/
1-
11
14
06
1<
1?
07
19
0B
0)
1*
#103
05
01
04
16
0<
0?
1)
#104
18
10
1.
12
15
1/
1-
1F
11
14
06
1<
1?
17
09
1B
1E
0)
0*
0+
1!
#105
0.
0F
0-
08
00
02
05
01
04
16
0<
0?
1)
#106
1.
10
1F
12
15
1/
1-
11
14
06
1<
1?
07
19
0B
0)
1*
#107
00
02
05
01
04
16
0<
0?
1)
#108
18
10
0.
12
15
1/
1-
0F
11
14
06
1<
1?
17
09
1B
0E
0)
0*
1+
#109
0-
08
00
02
05
01
04
16
0<
0?
1)
#110
10
12
15
1/
1-
11
14
06
1<
1?
07
19
0B
0)
1*
#111
00
02
05
01
04
16
0<
0?
1)
#112
0.
15
1/
0-
0F
11
14
06
1<
1?
17
09
1B
1E
0)
0*
0+
0!
1"
#113
1.
1F
1-
18
10
05
01
13
04
16
0<
0?
1)
#114
1.
1F
1-
00
15
1/
08
11
03
14
06
1<
1?
07
19
0B
0)
1*
#115
10
05
01
13
04
16
0<
0?
1)
#116
0.
00
15
1/
08
0-
0F
11
03
14
06
1<
1?
17
09
1B
0E
0)
0*
1+
#117
1-
18
10
05
01
13
04
16
0<
0?
1)
#118
1-
00
15
1/
08
11
03
14
06
1<
1?
07
19
0B
0)
1*
#119
10
05
01
13
04
16
0<
0?
1)
#120
1.
12
10
15
1/
18
1-
1F
11
03
14
06
1<
1?
17
09
1B
1E
0)
0*
0+
1!
#121
02
05
01
13
04
16
0<
0?
1)
#122
1.
1F
1-
12
10
15
1/
08
11
03
14
06
1<
1?
07
19
0B
0)
1*
#123
02
05
01
13
04
16
0<
0?
1)
#124
0.
12
10
15
1/
18
1-
0F
11
03
14
06
1<
1?
17
09
1B
0E
0)
0*
1+
#125
02
05
01
13
04
16
0<
0?
1)
#126
1-
12
10
15
1/
08
11
03
14
06
1<
1?
07
19
0B
0)
1*
#127
02
05
01
13
04
16
0<
0?
1)
#128
1,
1C
1;
0.
1=
0-
0F
00
0/
11
14
1<
1?
17
09
1B
1E
03
06
0)
0*
0+
0!
0"
0#
0$
1%
#129
0,
0C
0;
0=
01
04
0<
0?
1)
#130
1;
1=
11
14
1<
1?
07
0B
0)
1*
#131
0;
0=
01
04
0<
0?
1)
#132
1.
1G
1,
1C
1;
1=
11
14
1<
1?
17
1B
0E
0)
0*
1+
#133
0.
0G
0,
0C
0;
0=
01
04
0<
0?
1)
#134
1;
1=
11
14
1<
1?
07
0B
0)
1*
#135
0;
0=
01
04
0<
0?
1)
#136
1.
1F
1-
1,
18
1C
10
1;
12
1=
11
14
1<
1?
17
1B
1E
0)
0*
0+
1!
#137
0.
0F
0-
0,
08
0C
00
0;
02
0=
01
04
0<
0?
1)
#138
10
1;
12
1=
11
14
1<
1?
07
0B
0)
1*
#139
00
0;
02
0=
01
04
0<
0?
1)
#140
1.
1G
1-
1,
18
1C
10
1;
12
1=
11
14
1<
1?
17
1B
0E
0)
0*
1+
#141
0.
0G
0-
0,
08
0C
00
0;
02
0=
01
04
0<
0?
1)
#142
10
1;
12
1=
11
14
1<
1?
07
0B
0)
1*
#143
00
0;
02
0=
01
04
0<
0?
1)
#144
1,
1C
1;
1=
11
14
1<
1?
17
1B
1E
0)
0*
0+
0!
1"
#145
1.
1F
0,
1-
0C
18
0;
10
0=
01
13
04
0<
0?
1)
#146
0.
0F
1;
0-
00
1=
08
11
03
14
1<
1?
07
0B
0)
1*
#147
0;
10
0=
01
13
04
0<
0?
1)
#148
1.
1G
1,
1C
1;
0-
00
1=
08
11
03
14
1<
1?
17
1B
0E
0)
0*
1+
#149
0.
0G
0,
1-
0C
18
0;
10
0=
01
13
04
0<
0?
1)
#150
1;
0-
00
1=
08
11
03
14
1<
1?
07
0B
0)
1*
#151
0;
10
0=
01
13
04
0<
0?
1)
#152
1,
1.
1C
1F
1;
1-
12
10
1=
18
11
03
14
1<
1?
17
1B
1E
0)
0*
0+
1!
#153
0,
0C
0;
02
0=
01
13
04
0<
0?
1)
#154
0.
0F
1;
0-
12
10
1=
08
11
03
14
1<
1?
07
0B
0)
1*
#155
0;
02
0=
01
13
04
0<
0?
1)
#156
1.
1G
1,
1C
1;
1-
12
10
1=
18
11
03
14
1<
1?
17
1B
0E
0)
0*
1+
#157
0.
0G
0,
0C
0;
02
0=
01
13
04
0<
0?
1)
#158
1;
0-
12
10
1=
08
11
03
14
1<
1?
07
0B
0)
1*
#159
0;
02
0=
01
13
04
0<
0?
1)
#160
1,
1C
1/
1;
15
1=
00
11
14
1<
1?
17
1B
1E
03
0)
0*
0+
0!
0"
1#
#161
0,
0C
0/
0;
05
0=
01
04
0<
0?
1)
#162
1.
1F
1-
19
1/
1;
15
1=
11
14
1<
1?
07
0B
0)
1*
#163
0.
0F
0-
09
0/
0;
05
0=
01
04
0<
0?
1)
#164
1.
1G
1,
1C
1/
1;
15
1=
11
14
1<
1?
17
1B
0E
0)
0*
1+
#165
0.
0G
0,
0C
0/
0;
05
0=
01
04
0<
0?
1)
#166
1-
19
1/
1;
15
1=
11
14
1<
1?
07
0B
0)
1*
#167
0-
09
0/
0;
05
0=
01
04
0<
0?
1)
#168
1.
1F
1-
1,
18
1C
10
1/
1;
12
15
1=
11
14
1<
1?
17
1B
1E
0)
0*
0+
1!
#169
0.
0F
0-
0,
08
0C
00
0/
0;
02
05
0=
01
04
0<
0?
1)
#170
1.
1F
1-
19
10
1/
1;
12
15
1=
11
14
1<
1?
07
0B
0)
1*
#171
0.
0F
0-
09
00
0/
0;
02
05
0=
01
04
0<
0?
1)
#172
1.
1G
1-
1,
18
1C
10
1/
1;
12
15
1=
11
14
1<
1?
17
1B
0E
0)
0*
1+
#173
0.
0G
0-
0,
08
0C
00
0/
0;
02
05
0=
01
04
0<
0?
1)
#174
1-
19
10
1/
1;
12
15
1=
11
14
1<
1?
07
0B
0)
1*
#175
0-
09
00
0/
0;
02
05
0=
01
04
0<
0?
1)
#176
1,
1C
1/
1;
15
1=
11
14
1<
1?
17
1B
1E
0)
0*
0+
0!
1"
#177
1.
1F
0,
1-
0C
18
0/
0;
10
05
0=
01
13
04
0<
0?
1)
#178
1.
19
1F
1/
1;
1-
00
15
1=
08
11
03
14
1<
1?
07
0B
0)
1*
#179
0.
0F
0-
09
0/
0;
10
05
0=
01
13
04
0<
0?
1)
#180
1.
1G
1,
1C
1/
1;
0-
00
15
1=
08
11
03
14
1<
1?
17
1B
0E
0)
0*
1+
#181
0.
0G
0,
1-
0C
18
0/
0;
10
05
0=
01
13
04
0<
0?
1)
#182
19
1/
1;
1-
00
15
1=
08
11
03
14
1<
1?
07
0B
0)
1*
#183
0-
09
0/
0;
10
05
0=
01
13
04
0<
0?
1)
#184
1,
1.
1C
1F
1/
1;
1-
12
10
15
1=
18
11
03
14
1<
1?
17
1B
1E
0)
0*
0+
1!
#185
0,
0C
0/
0;
02
05
0=
01
13
04
0<
0?
1)
#186
1.
19
1F
1/
1;
1-
12
10
15
1=
08
11
03
14
1<
1?
07
0B
0)
1*
#187
0.
0F
0-
09
0/
0;
02
05
0=
01
13
04
0<
0?
1)
#188
1.
1G
1,
1C
1/
1;
1-
12
10
15
1=
18
11
03
14
1<
1?
17
1B
0E
0)
0*
1+
#189
0.
0G
0,
0C
0/
0;
02
05
0=
01
13
04
0<
0?
1)
#190
19
1/
1;
1-
12
10
15
1=
08
11
03
14
1<
1?
07
0B
0)
1*
#191
0-
09
0/
0;
02
05
0=
01
13
04
0<
0?
1)
#192
1,
1C
1;
1=
00
11
14
1<
1?
17
1B
1E
03
0)
0*
0+
0!
0"
0#
1$
#193
0,
0C
0;
1/
0=
01
04
16
0<
0?
1)
#194
0.
1;
0F
0/
1=
0-
11
14
06
1<
1?
07
09
0B
0)
1*
#195
1.
1F
1-
19
0;
1/
0=
01
04
16
0<
0?
1)
#196
1G
1,
1C
1;
1.
0/
1=
0-
0F
11
14
06
1<
1?
17
09
1B
0E
0)
0*
1+
#197
0.
0G
0,
0C
0;
1/
0=
01
04
16
0<
0?
1)
#198
1;
0/
1=
0-
11
14
06
1<
1?
07
09
0B
0)
1*
#199
1-
19
0;
1/
0=
01
04
16
0<
0?
1)
#200
1,
18
1C
10
1;
1.
12
0/
1=
1-
1F
11
14
06
1<
1?
17
09
1B
1E
0)
0*
0+
1!
#201
0.
0F
0-
0,
08
0C
00
0;
02
1/
0=
01
04
16
0<
0?
1)
#202
0.
10
1;
0F
12
0/
1=
0-
11
14
06
1<
1?
07
09
0B
0)
1*
#203
1.
1F
1-
00
19
0;
02
1/
0=
01
04
16
0<
0?
1)
#204
1G
1,
18
1C
10
1;
1.
12
0/
1=
1-
0F
11
14
06
1<
1?
17
09
1B
0E
0)
0*
1+
#205
0.
0G
0-
0,
08
0C
00
0;
02
1/
0=
01
04
16
0<
0?
1)
#206
10
1;
12
0/
1=
0-
11
14
06
1<
1?
07
09
0B
0)
1*
#207
1-
00
19
0;
02
1/
0=
01
04
16
0<
0?
1)
#208
1,
1C
1;
0.
0/
1=
0-
0F
11
14
06
1<
1?
17
09
1B
1E
0)
0*
0+
0!
1"
#209
1.
1F
0,
1-
0C
18
0;
10
1/
0=
01
13
04
16
0<
0?
1)
#210
0.
0F
0-
1;
00
0/
1=
08
11
03
14
06
1<
1?
07
09
0B
0)
1*
#211
1.
1F
1-
19
0;
10
1/
0=
01
13
04
16
0<
0?
1)
#212
1G
1,
1C
1;
1.
00
0/
1=
08
0-
0F
11
03
14
06
1<
1?
17
09
1B
0E
0)
0*
1+
#213
0.
0G
0,
1-
0C
18
0;
10
1/
0=
01
13
04
16
0<
0?
1)
#214
0-
1;
00
0/
1=
08
11
03
14
06
1<
1?
07
09
0B
0)
1*
#215
1-
19
0;
10
1/
0=
01
13
04
16
0<
0?
1)
#216
1,
1C
1;
1.
12
10
0/
1=
18
1-
1F
11
03
14
06
1<
1?
17
09
1B
1E
0)
0*
0+
1!
#217
0,
0C
0;
02
1/
0=
01
13
04
16
0<
0?
1)
#218
0.
0F
0-
1;
12
10
0/
1=
08
11
03
14
06
1<
1?
07
09
0B
0)
1*
#219
1.
1F
1-
19
0;
02
1/
0=
01
13
04
16
0<
0?
1)
#220
1G
1,
1C
1;
1.
12
10
0/
1=
18
1-
0F
11
03
14
06
1<
1?
17
09
1B
0E
0)
0*
1+
#221
0.
0G
0,
0C
0;
02
1/
0=
01
13
04
16
0<
0?
1)
#222
0-
1;
12
10
0/
1=
08
11
03
14
06
1<
1?
07
09
0B
0)
1*
#223
1-
19
0;
02
1/
0=
01
13
04
16
0<
0?
1)
#224
1,
1C
1;
0.
15
1/
1=
0-
0F
00
11
14
06
1<
1?
17
09
1B
1E
03
0)
0*
0+
0!
0"
1#
#225
0,
0C
0;
05
0=
01
04
16
0<
0?
1)
#226
1.
1;
1F
15
1/
1=
1-
11
14
06
1<
1?
07
19
0B
0)
1*
#227
0;
05
0=
01
04
16
0<
0?
1)
#228
1G
1,
1C
1;
1.
15
1/
1=
0-
0F
11
14
06
1<
1?
17
09
1B
0E
0)
0*
1+
#229
0.
0G
0,
0C
0;
05
0=
01
04
16
0<
0?
1)
#230
1;
15
1/
1=
1-
11
14
06
1<
1?
07
19
0B
0)
1*
#231
0;
05
0=
01
04
16
0<
0?
1)
#232
1,
18
1C
10
1;
1.
12
15
1/
1=
1-
1F
11
14
06
1<
1?
17
09
1B
1E
0)
0*
0+
1!
#233
0.
0F
0-
0,
08
0C
00
0;
02
05
0=
01
04
16
0<
0?
1)
#234
1.
10
1;
1F
12
15
1/
1=
1-
11
14
06
1<
1?
07
19
0B
0)
1*
#235
00
0;
02
05
0=
01
04
16
0<
0?
1)
#236
1G
1,
18
1C
10
1;
1.
12
15
1/
1=
1-
0F
11
14
06
1<
1?
17
09
1B
0E
0)
0*
1+
#237
0.
0G
0-
0,
08
0C
00
0;
02
05
0=
01
04
16
0<
0?
1)
#238
10
1;
12
15
1/
1=
1-
11
14
06
1<
1?
07
19
0B
0)
1*
#239
00
0;
02
05
0=
01
04
16
0<
0?
1)
#240
1,
1C
1;
0.
15
1/
1=
0-
0F
11
14
06
1<
1?
17
09
1B
1E
0)
0*
0+
0!
1"
#241
1.
1F
0,
1-
0C
18
0;
10
05
0=
01
13
04
16
0<
0?
1)
#242
1.
1F
1-
1;
00
15
1/
1=
08
11
03
14
06
1<
1?
07
19
0B
0)
1*
#243
0;
10
05
0=
01
13
04
16
0<
0?
1)
#244
1G
1,
1C
1;
1.
00
15
1/
1=
08
0-
0F
11
03
14
06
1<
1?
17
09
1B
0E
0)
0*
1+
#245
0.
0G
0,
1-
0C
18
0;
10
05
0=
01
13
04
16
0<
0?
1)
#246
1-
1;
00
15
1/
1=
08
11
03
14
06
1<
1?
07
19
0B
0)
1*
#247
0;
10
05
0=
01
13
04
16
0<
0?
1)
#248
1,
1C
1;
1.
12
10
15
1/
1=
18
1-
1F
11
03
14
06
1<
1?
17
09
1B
1E
0)
0*
0+
1!
#249
0,
0C
0;
02
05
0=
01
13
04
16
0<
0?
1)
#250
1.
1F
1-
1;
12
10
15
1/
1=
08
11
03
14
06
1<
1?
07
19
0B
0)
1*
#251
0;
02
05
0=
01
13
04
16
0<
0?
1)
#252
1G
1,
1C
1;
1.
12
10
15
1/
1=
18
1-
0F
11
03
14
06
1<
1?
17
09
1B
0E
0)
0*
1+
#253
0.
0G
0,
0C
0;
02
05
0=
01
13
04
16
0<
0?
1)
#254
1-
1;
12
10
15
1/
1=
08
11
03
14
06
1<
1?
07
19
0B
0)
1*
#255
0;
02
05
0=
01
13
04
16
0<
0?
1)
#256
0.
0-
0F
00
0/
11
14
1<
1?
17
09
1B
1E
03
06
0)
0*
0+
0!
0"
0#
0$
0%
1&
#257
1,
1C
1;
01
04
0<
1>
0?
1)
#258
0,
0;
0C
11
14
1<
0>
1?
07
0B
0)
1*
#259
1;
01
04
0<
1>
0?
1)
#260
0.
0G
0,
0;
0C
11
14
1<
0>
1?
17
1B
0E
0)
0*
1+
#261
1.
1G
1,
1C
1;
01
04
0<
1>
0?
1)
#262
0.
0G
0,
0;
0C
11
14
1<
0>
1?
07
0B
0)
1*
#263
1;
01
04
0<
1>
0?
1)
#264
1.
1F
1-
18
10
0,
12
0;
0C
11
14
1<
0>
1?
17
1B
1E
0)
0*
0+
1!
#265
0.
0F
0-
08
1,
00
1C
02
1;
01
04
0<
1>
0?
1)
#266
10
0,
12
0;
0C
11
14
1<
0>
1?
07
0B
0)
1*
#267
00
02
1;
01
04
0<
1>
0?
1)
#268
1-
0.
18
0G
10
0,
12
0;
0C
11
14
1<
0>
1?
17
1B
0E
0)
0*
1+
#269
1.
0-
1G
08
1,
00
1C
02
1;
01
04
0<
1>
0?
1)
#270
0.
0G
10
0,
12
0;
0C
11
14
1<
0>
1?
07
0B
0)
1*
#271
00
02
1;
01
04
0<
1>
0?
1)
#272
0,
0;
0C
11
14
1<
0>
1?
17
1B
1E
0)
0*
0+
0!
1"
#273
1.
1F
1-
1,
18
1C
10
1;
01
13
04
0<
1>
0?
1)
#274
0.
0F
0-
0,
00
0;
08
0C
11
03
14
1<
0>
1?
07
0B
0)
1*
#275
10
1;
01
13
04
0<
1>
0?
1)
#276
0.
0G
0-
0,
00
0;
08
0C
11
03
14
1<
0>
1?
17
1B
0E
0)
0*
1+
#277
1.
1G
1-
1,
18
1C
10
1;
01
13
04
0<
1>
0?
1)
#278
0.
0G
0-
0,
00
0;
08
0C
11
03
14
1<
0>
1?
07
0B
0)
1*
#279
10
1;
01
13
04
0<
1>
0?
1)
#280
1.
1F
1-
0,
12
10
0;
18
0C
11
03
14
1<
0>
1?
17
1B
1E
0)
0*
0+
1!
#281
1,
1C
02
1;
01
13
04
0<
1>
0?
1)
#282
0.
0F
0-
0,
12
10
0;
08
0C
11
03
14
1<
0>
1?
07
0B
0)
1*
#283
02
1;
01
13
04
0<
1>
0?
1)
#284
0.
0G
1-
0,
12
10
0;
18
0C
11
03
14
1<
0>
1?
17
1B
0E
0)
0*
1+
#285
1.
1G
1,
1C
02
1;
01
13
04
0<
1>
0?
1)
#286
0.
0G
0-
0,
12
10
0;
08
0C
11
03
14
1<
0>
1?
07
0B
0)
1*
#287
02
1;
01
13
04
0<
1>
0?
1)
#288
1/
0,
15
0;
0C
00
11
14
1<
0>
1?
17
1B
1E
03
0)
0*
0+
0!
0"
1#
#289
1,
0/
1C
05
1;
01
04
0<
1>
0?
1)
#290
1.
1F
1-
19
1/
0,
15
0;
0C
11
14
1<
0>
1?
07
0B
0)
1*
#291
0.
0F
0-
09
0/
05
1;
01
04
0<
1>
0?
1)
#292
0.
0G
1/
0,
15
0;
0C
11
14
1<
0>
1?
17
1B
0E
0)
0*
1+
#293
1.
1G
1,
0/
1C
05
1;
01
04
0<
1>
0?
1)
#294
1-
0.
19
0G
1/
0,
15
0;
0C
11
14
1<
0>
1?
07
0B
0)
1*
#295
0-
09
0/
05
1;
01
04
0<
1>
0?
1)
#296
1.
1F
1-
18
10
1/
0,
12
15
0;
0C
11
14
1<
0>
1?
17
1B
1E
0)
0*
0+
1!
#297
0.
0F
0-
08
1,
00
0/
1C
02
05
1;
01
04
0<
1>
0?
1)
#298
1.
1F
1-
19
10
1/
0,
12
15
0;
0C
11
14
1<
0>
1?
07
0B
0)
1*
#299
0.
0F
0-
09
00
0/
02
05
1;
01
04
0<
1>
0?
1)
#300
1-
0.
18
0G
10
1/
0,
12
15
0;
0C
11
14
1<
0>
1?
17
1B
0E
0)
0*
1+
#301
1.
0-
1G
08
1,
00
0/
1C
02
05
1;
01
04
0<
1>
0?
1)
#302
1-
0.
19
0G
10
1/
0,
12
15
0;
0C
11
14
1<
0>
1?
07
0B
0)
1*
#303
0-
09
00
0/
02
05
1;
01
04
0<
1>
0?
1)
#304
1/
0,
15
0;
0C
11
14
1<
0>
1?
17
1B
1E
0)
0*
0+
0!
1"
#305
1.
1F
1-
1,
18
0/
1C
10
05
1;
01
13
04
0<
1>
0?
1)
#306
1.
19
1F
1/
1-
0,
00
15
0;
08
0C
11
03
14
1<
0>
1?
07
0B
0)
1*
#307
0.
0F
0-
09
0/
10
05
1;
01
13
04
0<
1>
0?
1)
#308
0.
0G
1/
0-
0,
00
15
0;
08
0C
11
03
14
1<
0>
1?
17
1B
0E
0)
0*
1+
#309
1.
1G
1-
1,
18
0/
1C
10
05
1;
01
13
04
0<
1>
0?
1)
#310
0.
19
0G
1/
1-
0,
00
15
0;
08
0C
11
03
14
1<
0>
1?
07
0B
0)
1*
#311
0-
09
0/
10
05
1;
01
13
04
0<
1>
0?
1)
#312
1.
1F
1/
1-
0,
12
10
15
0;
18
0C
11
03
14
1<
0>
1?
17
1B
1E
0)
0*
0+
1!
#313
1,
0/
1C
02
05
1;
01
13
04
0<
1>
0?
1)
#314
1.
19
1F
1/
1-
0,
12
10
15
0;
08
0C
11
03
14
1<
0>
1?
07
0B
0)
1*
#315
0.
0F
0-
09
0/
02
05
1;
01
13
04
0<
1>
0?
1)
#316
0.
0G
1/
1-
0,
12
10
15
0;
18
0C
11
03
14
1<
0>
1?
17
1B
0E
0)
0*
1+
#317
1.
1G
1,
0/
1C
02
05
1;
01
13
04
0<
1>
0?
1)
#318
0.
19
0G
1/
1-
0,
12
10
15
0;
08
0C
11
03
14
1<
0>
1?
07
0B
0)
1*
#319
0-
09
0/
02
05
1;
01
13
04
0<
1>
0?
1)
#320
0,
0;
0C
00
11
14
1<
0>
1?
17
1B
1E
03
0)
0*
0+
0!
0"
0#
1$
#321
1,
1C
1/
1;
01
04
16
0<
1>
0?
1)
#322
0.
0F
0,
0/
0;
0-
0C
11
14
06
1<
0>
1?
07
09
0B
0)
1*
#323
1.
1F
1-
19
1/
1;
01
04
16
0<
1>
0?
1)
